[gd_resource type="TileSet" load_steps=40 format=1]

[ext_resource path="res://res/images/tile-1.png" type="Texture" id=1]
[ext_resource path="res://res/images/tile-2.png" type="Texture" id=2]
[ext_resource path="res://res/images/tile-11.png" type="Texture" id=3]
[ext_resource path="res://res/images/tile-12.png" type="Texture" id=4]
[ext_resource path="res://res/images/tile-16.png" type="Texture" id=5]
[ext_resource path="res://res/images/tile-17.png" type="Texture" id=6]
[ext_resource path="res://res/images/tile-18.png" type="Texture" id=7]
[ext_resource path="res://res/images/tile-22.png" type="Texture" id=8]
[ext_resource path="res://res/images/tile-23.png" type="Texture" id=9]
[ext_resource path="res://res/images/tile-24.png" type="Texture" id=10]
[ext_resource path="res://res/images/tile-13.png" type="Texture" id=11]
[ext_resource path="res://res/images/tile-14.png" type="Texture" id=12]
[ext_resource path="res://res/images/tile-3.png" type="Texture" id=13]
[ext_resource path="res://res/images/tile-15.png" type="Texture" id=14]
[ext_resource path="res://res/images/tile-19.png" type="Texture" id=15]
[ext_resource path="res://res/images/tile-20.png" type="Texture" id=16]
[ext_resource path="res://res/images/tile-21.png" type="Texture" id=17]
[ext_resource path="res://res/images/tile-25.png" type="Texture" id=18]
[ext_resource path="res://res/images/tile-26.png" type="Texture" id=19]
[ext_resource path="res://res/images/tile-27.png" type="Texture" id=20]
[ext_resource path="res://res/images/tile-28.png" type="Texture" id=21]
[ext_resource path="res://res/images/tile-29.png" type="Texture" id=22]
[ext_resource path="res://res/images/tile-30.png" type="Texture" id=23]
[ext_resource path="res://res/images/tile-4.png" type="Texture" id=24]
[ext_resource path="res://res/images/tile-5.png" type="Texture" id=25]
[ext_resource path="res://res/images/tile-8.png" type="Texture" id=26]
[ext_resource path="res://res/images/tile-6.png" type="Texture" id=27]
[ext_resource path="res://res/images/tile-7.png" type="Texture" id=28]
[ext_resource path="res://res/images/tile-9.png" type="Texture" id=29]
[ext_resource path="res://res/images/tile-10.png" type="Texture" id=30]

[sub_resource type="RectangleShape2D" id=1]

custom_solver_bias = 0.0
extents = Vector2( 12, 12 )

[sub_resource type="ConvexPolygonShape2D" id=2]

custom_solver_bias = 0.0
points = Vector2Array( -12, -12, 11, -12, 11, 12, -12, 12 )

[sub_resource type="ConvexPolygonShape2D" id=3]

custom_solver_bias = 0.0
points = Vector2Array( -11, -12, 12, -12, 12, 12, -11, 12 )

[sub_resource type="ConvexPolygonShape2D" id=4]

custom_solver_bias = 0.0
points = Vector2Array( -12, -12, 11, -12, 11, 12, -12, 12 )

[sub_resource type="ConvexPolygonShape2D" id=5]

custom_solver_bias = 0.0
points = Vector2Array( 12, 11, -4, 11, -10, 5, -11, -12, 12, -12 )

[sub_resource type="ConvexPolygonShape2D" id=6]

custom_solver_bias = 0.0
points = Vector2Array( -12, -12, 12, -12, 12, 11, -12, 11 )

[sub_resource type="ConvexPolygonShape2D" id=7]

custom_solver_bias = 0.0
points = Vector2Array( -12, -12, 11, -12, 11, 5, 6, 11, -12, 11 )

[sub_resource type="ConvexPolygonShape2D" id=8]

custom_solver_bias = 0.0
points = Vector2Array( -12, -12, 12, -12, 12, 10, -12, 10 )

[sub_resource type="ConvexPolygonShape2D" id=9]

custom_solver_bias = 0.0
points = Vector2Array( -11, -12, 12, -12, 12, 12, -11, 12 )

[resource]

0/name = "Panel-1"
0/texture = ExtResource( 1 )
0/tex_offset = Vector2( 0, 0 )
0/modulate = Color( 1, 1, 1, 1 )
0/region = Rect2( 0, 0, 24, 24 )
0/occluder_offset = Vector2( 12, 12 )
0/navigation_offset = Vector2( 12, 12 )
0/shape_offset = Vector2( 12, 12 )
0/shapes = [ SubResource( 1 ) ]
1/name = "Panel-2"
1/texture = ExtResource( 2 )
1/tex_offset = Vector2( 0, 0 )
1/modulate = Color( 1, 1, 1, 1 )
1/region = Rect2( 0, 0, 24, 24 )
1/occluder_offset = Vector2( 12, 12 )
1/navigation_offset = Vector2( 12, 12 )
1/shape_offset = Vector2( 12, 12 )
1/shapes = [ SubResource( 1 ) ]
2/name = "Panel-4"
2/texture = ExtResource( 13 )
2/tex_offset = Vector2( 0, 0 )
2/modulate = Color( 1, 1, 1, 1 )
2/region = Rect2( 0, 0, 24, 24 )
2/occluder_offset = Vector2( 12, 12 )
2/navigation_offset = Vector2( 12, 12 )
2/shape_offset = Vector2( 12, 12 )
2/shapes = [ SubResource( 1 ) ]
3/name = "Dirt-Up"
3/texture = ExtResource( 24 )
3/tex_offset = Vector2( 0, 0 )
3/modulate = Color( 1, 1, 1, 1 )
3/region = Rect2( 0, 0, 24, 24 )
3/occluder_offset = Vector2( 12, 12 )
3/navigation_offset = Vector2( 12, 12 )
3/shape_offset = Vector2( 12, 12 )
3/shapes = [ SubResource( 1 ) ]
4/name = "Dirt-Middle"
4/texture = ExtResource( 25 )
4/tex_offset = Vector2( 0, 0 )
4/modulate = Color( 1, 1, 1, 1 )
4/region = Rect2( 0, 0, 24, 24 )
4/occluder_offset = Vector2( 12, 12 )
4/navigation_offset = Vector2( 12, 12 )
4/shape_offset = Vector2( 12, 12 )
4/shapes = [ SubResource( 1 ) ]
5/name = "Dirt-Down"
5/texture = ExtResource( 26 )
5/tex_offset = Vector2( 0, 0 )
5/modulate = Color( 1, 1, 1, 1 )
5/region = Rect2( 0, 0, 24, 24 )
5/occluder_offset = Vector2( 12, 12 )
5/navigation_offset = Vector2( 12, 12 )
5/shape_offset = Vector2( 12, 12 )
5/shapes = [ SubResource( 8 ) ]
6/name = "Dirt-Middle-Dark"
6/texture = ExtResource( 27 )
6/tex_offset = Vector2( 0, 0 )
6/modulate = Color( 1, 1, 1, 1 )
6/region = Rect2( 0, 0, 24, 24 )
6/occluder_offset = Vector2( 12, 12 )
6/navigation_offset = Vector2( 12, 12 )
6/shape_offset = Vector2( 12, 12 )
6/shapes = [ SubResource( 1 ) ]
7/name = "Dirt-Middle-Darker"
7/texture = ExtResource( 28 )
7/tex_offset = Vector2( 0, 0 )
7/modulate = Color( 1, 1, 1, 1 )
7/region = Rect2( 0, 0, 24, 24 )
7/occluder_offset = Vector2( 12, 12 )
7/navigation_offset = Vector2( 12, 12 )
7/shape_offset = Vector2( 12, 12 )
7/shapes = [ SubResource( 1 ) ]
8/name = "Pointy-Cave-Thing"
8/texture = ExtResource( 29 )
8/tex_offset = Vector2( 0, 0 )
8/modulate = Color( 1, 1, 1, 1 )
8/region = Rect2( 0, 0, 24, 24 )
8/occluder_offset = Vector2( 12, 12 )
8/navigation_offset = Vector2( 12, 12 )
8/shape_offset = Vector2( 0, 0 )
8/shapes = [  ]
9/name = "Cave-Up-Left"
9/texture = ExtResource( 30 )
9/tex_offset = Vector2( 0, 0 )
9/modulate = Color( 1, 1, 1, 1 )
9/region = Rect2( 0, 0, 24, 24 )
9/occluder_offset = Vector2( 12, 12 )
9/navigation_offset = Vector2( 12, 12 )
9/shape_offset = Vector2( 12, 12 )
9/shapes = [ SubResource( 9 ) ]
10/name = "Cave-Up"
10/texture = ExtResource( 3 )
10/tex_offset = Vector2( 0, 0 )
10/modulate = Color( 1, 1, 1, 1 )
10/region = Rect2( 0, 0, 24, 24 )
10/occluder_offset = Vector2( 12, 12 )
10/navigation_offset = Vector2( 12, 12 )
10/shape_offset = Vector2( 12, 12 )
10/shapes = [ SubResource( 1 ) ]
11/name = "Cave-Up-Right"
11/texture = ExtResource( 4 )
11/tex_offset = Vector2( 0, 0 )
11/modulate = Color( 1, 1, 1, 1 )
11/region = Rect2( 0, 0, 24, 24 )
11/occluder_offset = Vector2( 12, 12 )
11/navigation_offset = Vector2( 12, 12 )
11/shape_offset = Vector2( 12, 12 )
11/shapes = [ SubResource( 2 ) ]
12/name = "Cave-Middle-Left"
12/texture = ExtResource( 5 )
12/tex_offset = Vector2( 0, 0 )
12/modulate = Color( 1, 1, 1, 1 )
12/region = Rect2( 0, 0, 24, 24 )
12/occluder_offset = Vector2( 12, 12 )
12/navigation_offset = Vector2( 12, 12 )
12/shape_offset = Vector2( 12, 12 )
12/shapes = [ SubResource( 3 ) ]
13/name = "Cave-Middle"
13/texture = ExtResource( 6 )
13/tex_offset = Vector2( 0, 0 )
13/modulate = Color( 1, 1, 1, 1 )
13/region = Rect2( 0, 0, 24, 24 )
13/occluder_offset = Vector2( 12, 12 )
13/navigation_offset = Vector2( 12, 12 )
13/shape_offset = Vector2( 12, 12 )
13/shapes = [ SubResource( 1 ) ]
14/name = "Cave-Middle-Right"
14/texture = ExtResource( 7 )
14/tex_offset = Vector2( 0, 0 )
14/modulate = Color( 1, 1, 1, 1 )
14/region = Rect2( 0, 0, 24, 24 )
14/occluder_offset = Vector2( 12, 12 )
14/navigation_offset = Vector2( 12, 12 )
14/shape_offset = Vector2( 12, 12 )
14/shapes = [ SubResource( 4 ) ]
15/name = "Cave-Bottom-Left"
15/texture = ExtResource( 8 )
15/tex_offset = Vector2( 0, 0 )
15/modulate = Color( 1, 1, 1, 1 )
15/region = Rect2( 0, 0, 24, 24 )
15/occluder_offset = Vector2( 12, 12 )
15/navigation_offset = Vector2( 12, 12 )
15/shape_offset = Vector2( 12, 12 )
15/shapes = [ SubResource( 5 ) ]
16/name = "Cave-Bottom"
16/texture = ExtResource( 9 )
16/tex_offset = Vector2( 0, 0 )
16/modulate = Color( 1, 1, 1, 1 )
16/region = Rect2( 0, 0, 24, 24 )
16/occluder_offset = Vector2( 12, 12 )
16/navigation_offset = Vector2( 12, 12 )
16/shape_offset = Vector2( 12, 12 )
16/shapes = [ SubResource( 6 ) ]
17/name = "Cave-Bottom-Right"
17/texture = ExtResource( 10 )
17/tex_offset = Vector2( 0, 0 )
17/modulate = Color( 1, 1, 1, 1 )
17/region = Rect2( 0, 0, 24, 24 )
17/occluder_offset = Vector2( 12, 12 )
17/navigation_offset = Vector2( 12, 12 )
17/shape_offset = Vector2( 12, 12 )
17/shapes = [ SubResource( 7 ) ]
18/name = "Cave-BG-00"
18/texture = ExtResource( 11 )
18/tex_offset = Vector2( 0, 0 )
18/modulate = Color( 1, 1, 1, 1 )
18/region = Rect2( 0, 0, 24, 24 )
18/occluder_offset = Vector2( 12, 12 )
18/navigation_offset = Vector2( 12, 12 )
18/shape_offset = Vector2( 0, 0 )
18/shapes = [  ]
19/name = "Cave-BG-10"
19/texture = ExtResource( 12 )
19/tex_offset = Vector2( 0, 0 )
19/modulate = Color( 1, 1, 1, 1 )
19/region = Rect2( 0, 0, 24, 24 )
19/occluder_offset = Vector2( 12, 12 )
19/navigation_offset = Vector2( 12, 12 )
19/shape_offset = Vector2( 0, 0 )
19/shapes = [  ]
20/name = "Cave-BG-20"
20/texture = ExtResource( 14 )
20/tex_offset = Vector2( 0, 0 )
20/modulate = Color( 1, 1, 1, 1 )
20/region = Rect2( 0, 0, 24, 24 )
20/occluder_offset = Vector2( 12, 12 )
20/navigation_offset = Vector2( 12, 12 )
20/shape_offset = Vector2( 0, 0 )
20/shapes = [  ]
21/name = "Cave-BG-01"
21/texture = ExtResource( 15 )
21/tex_offset = Vector2( 0, 0 )
21/modulate = Color( 1, 1, 1, 1 )
21/region = Rect2( 0, 0, 24, 24 )
21/occluder_offset = Vector2( 12, 12 )
21/navigation_offset = Vector2( 12, 12 )
21/shape_offset = Vector2( 0, 0 )
21/shapes = [  ]
22/name = "Cave-BG-11"
22/texture = ExtResource( 16 )
22/tex_offset = Vector2( 0, 0 )
22/modulate = Color( 1, 1, 1, 1 )
22/region = Rect2( 0, 0, 24, 24 )
22/occluder_offset = Vector2( 12, 12 )
22/navigation_offset = Vector2( 12, 12 )
22/shape_offset = Vector2( 0, 0 )
22/shapes = [  ]
23/name = "Cave-BG-21"
23/texture = ExtResource( 17 )
23/tex_offset = Vector2( 0, 0 )
23/modulate = Color( 1, 1, 1, 1 )
23/region = Rect2( 0, 0, 24, 24 )
23/occluder_offset = Vector2( 12, 12 )
23/navigation_offset = Vector2( 12, 12 )
23/shape_offset = Vector2( 0, 0 )
23/shapes = [  ]
24/name = "Cave-BG-02"
24/texture = ExtResource( 18 )
24/tex_offset = Vector2( 0, 0 )
24/modulate = Color( 1, 1, 1, 1 )
24/region = Rect2( 0, 0, 24, 24 )
24/occluder_offset = Vector2( 12, 12 )
24/navigation_offset = Vector2( 12, 12 )
24/shape_offset = Vector2( 0, 0 )
24/shapes = [  ]
25/name = "Cave-BG-12"
25/texture = ExtResource( 19 )
25/tex_offset = Vector2( 0, 0 )
25/modulate = Color( 1, 1, 1, 1 )
25/region = Rect2( 0, 0, 24, 24 )
25/occluder_offset = Vector2( 12, 12 )
25/navigation_offset = Vector2( 12, 12 )
25/shape_offset = Vector2( 0, 0 )
25/shapes = [  ]
26/name = "Cave-BG-22"
26/texture = ExtResource( 20 )
26/tex_offset = Vector2( 0, 0 )
26/modulate = Color( 1, 1, 1, 1 )
26/region = Rect2( 0, 0, 24, 24 )
26/occluder_offset = Vector2( 12, 12 )
26/navigation_offset = Vector2( 12, 12 )
26/shape_offset = Vector2( 0, 0 )
26/shapes = [  ]
27/name = "Panel-1-Dark"
27/texture = ExtResource( 21 )
27/tex_offset = Vector2( 0, 0 )
27/modulate = Color( 1, 1, 1, 1 )
27/region = Rect2( 0, 0, 24, 24 )
27/occluder_offset = Vector2( 12, 12 )
27/navigation_offset = Vector2( 12, 12 )
27/shape_offset = Vector2( 12, 12 )
27/shapes = [ SubResource( 1 ) ]
28/name = "Panel-2-Dark"
28/texture = ExtResource( 22 )
28/tex_offset = Vector2( 0, 0 )
28/modulate = Color( 1, 1, 1, 1 )
28/region = Rect2( 0, 0, 24, 24 )
28/occluder_offset = Vector2( 12, 12 )
28/navigation_offset = Vector2( 12, 12 )
28/shape_offset = Vector2( 12, 12 )
28/shapes = [ SubResource( 1 ) ]
29/name = "Panel-4-Dark"
29/texture = ExtResource( 23 )
29/tex_offset = Vector2( 0, 0 )
29/modulate = Color( 1, 1, 1, 1 )
29/region = Rect2( 0, 0, 24, 24 )
29/occluder_offset = Vector2( 12, 12 )
29/navigation_offset = Vector2( 12, 12 )
29/shape_offset = Vector2( 12, 12 )
29/shapes = [ SubResource( 1 ) ]

